\relax 
\providecommand\hyper@newdestlabel[2]{}
\providecommand\HyperFirstAtBeginDocument{\AtBeginDocument}
\HyperFirstAtBeginDocument{\ifx\hyper@anchor\@undefined
\global\let\oldcontentsline\contentsline
\gdef\contentsline#1#2#3#4{\oldcontentsline{#1}{#2}{#3}}
\global\let\oldnewlabel\newlabel
\gdef\newlabel#1#2{\newlabelxx{#1}#2}
\gdef\newlabelxx#1#2#3#4#5#6{\oldnewlabel{#1}{{#2}{#3}}}
\AtEndDocument{\ifx\hyper@anchor\@undefined
\let\contentsline\oldcontentsline
\let\newlabel\oldnewlabel
\fi}
\fi}
\global\let\hyper@last\relax 
\gdef\HyperFirstAtBeginDocument#1{#1}
\providecommand\HyField@AuxAddToFields[1]{}
\providecommand\HyField@AuxAddToCoFields[2]{}
\providecommand \oddpage@label [2]{}
\newlabel{exercice-3.1}{{}{1}{Exercice 3.1}{section*.1}{}}
\@writefile{toc}{\contentsline {paragraph}{Exercice 3.1}{1}{section*.1}\protected@file@percent }
\newlabel{exercice-3.2}{{}{1}{Exercice 3.2}{section*.2}{}}
\@writefile{toc}{\contentsline {paragraph}{Exercice 3.2}{1}{section*.2}\protected@file@percent }
\newlabel{exercice-3.3}{{}{1}{Exercice 3.3}{section*.3}{}}
\@writefile{toc}{\contentsline {paragraph}{Exercice 3.3}{1}{section*.3}\protected@file@percent }
\newlabel{exercice-3.4}{{}{2}{Exercice 3.4}{section*.4}{}}
\@writefile{toc}{\contentsline {paragraph}{Exercice 3.4}{2}{section*.4}\protected@file@percent }
\newlabel{exercice-3.5}{{}{2}{Exercice 3.5}{section*.5}{}}
\@writefile{toc}{\contentsline {paragraph}{Exercice 3.5}{2}{section*.5}\protected@file@percent }
\newlabel{exercice-3.6-type-bac}{{}{2}{Exercice 3.6 (Type BAC)}{section*.6}{}}
\@writefile{toc}{\contentsline {paragraph}{Exercice 3.6 (Type BAC)}{2}{section*.6}\protected@file@percent }
\gdef \@abspage@last{3}
