\relax 
\@writefile{lof}{\contentsline {figure}{\numberline {1}{\ignorespaces \relax }}{1}{}\protected@file@percent }
\@writefile{lof}{\contentsline {figure}{\numberline {2}{\ignorespaces \relax }}{2}{}\protected@file@percent }
\gdef \@abspage@last{2}
